Differential_Controller/Quartus Simulation/simulation/qsim/differentialController_simulation.msim.vcd
$comment
	File created using the following command:
		vcd file differentialController_simulation.msim.vcd -direction
$end
$date
	Tue Nov 10 11:04:01 2020
$end
$version
	ModelSim Version 10.5b
$end
$timescale
	1ps
$end

$scope module differentialController_simulation_vlg_vec_tst $end
$var reg 1 ! auto $end
$var reg 1 " clock $end
$var reg 1 # limitedSlip $end
$var reg 1 $ locked $end
$var wire 1 % Q_auto $end
$var wire 1 & Q_en_CLK $end
$var wire 1 ' Q_enFlipFlop $end
$var wire 1 ( Q_limitedSlip $end
$var wire 1 ) Q_locked $end

$scope module i1 $end
$var wire 1 * gnd $end
$var wire 1 + vcc $end
$var wire 1 , unknown $end
$var tri1 1 - devclrn $end
$var tri1 1 . devpor $end
$var tri1 1 / devoe $end
$var wire 1 0 ~QUARTUS_CREATED_GND~I_combout $end
$var wire 1 1 ~QUARTUS_CREATED_UNVM~~busy $end
$var wire 1 2 ~QUARTUS_CREATED_ADC1~~eoc $end
$var wire 1 3 ~QUARTUS_CREATED_ADC2~~eoc $end
$var wire 1 4 Q_locked~output_o $end
$var wire 1 5 Q_limitedSlip~output_o $end
$var wire 1 6 Q_auto~output_o $end
$var wire 1 7 Q_enFlipFlop~output_o $end
$var wire 1 8 Q_en_CLK~output_o $end
$var wire 1 9 locked~input_o $end
$var wire 1 : clock~input_o $end
$var wire 1 ; limitedSlip~input_o $end
$var wire 1 < auto~input_o $end
$var wire 1 = inst63~combout $end
$var wire 1 > inst63~clkctrl_outclk $end
$var wire 1 ? inst44~combout $end
$var wire 1 @ inst6~feeder_combout $end
$var wire 1 A inst6~q $end
$var wire 1 B inst43~combout $end
$var wire 1 C inst11~feeder_combout $end
$var wire 1 D inst11~q $end
$var wire 1 E inst27~0_combout $end
$var wire 1 F inst27~1_combout $end
$var wire 1 G inst27~2_combout $end
$var wire 1 H inst36~0_combout $end
$upscope $end
$upscope $end
$enddefinitions $end
#0
$dumpvars
0!
0"
0#
0$
0%
0&
0'
0(
0)
0*
1+
x,
1-
1.
1/
00
z1
z2
z3
04
05
06
07
08
09
0:
0;
0<
0=
0>
0?
0@
0A
0B
0C
0D
0E
0F
0G
0H
$end
#7500
1"
1:
#15000
0"
0:
#22500
1"
1:
#30000
0"
0:
#37500
1"
1:
#40000
1$
19
1?
1H
1=
1>
18
17
1'
1&
1@
#45000
0"
0:
0=
0>
08
0&
#52500
1"
1:
1=
1>
18
1&
1A
1E
14
1)
#60000
0"
0:
0=
0>
08
0&
#67500
1"
1:
1=
1>
18
1&
#75000
0"
0:
0=
0>
08
0&
#82500
1"
1:
1=
1>
18
1&
#90000
0$
0"
0:
09
0?
0=
0H
0>
07
08
0&
0'
0@
#97500
1"
1:
#105000
0"
0:
#112500
1"
1:
#120000
0"
0:
#127500
1"
1:
#130000
1#
1;
1B
1H
1=
1>
18
17
1'
1&
1C
0A
0E
04
0)
#135000
0"
0:
0=
0>
08
0&
#142500
1"
1:
1=
1>
18
1&
1D
1F
15
1(
#150000
0"
0:
0=
0>
08
0&
#157500
1"
1:
1=
1>
18
1&
#160000
0#
0;
0B
0H
0=
0>
08
07
0'
0&
0C
#165000
0"
0:
#172500
1"
1:
#180000
0"
0:
#187500
1"
1:
#195000
0"
0:
#200000
1$
19
1?
1H
17
1'
1@
#202500
1"
1:
1=
1>
18
1&
0D
1A
0F
1E
14
05
0(
1)
#210000
0"
0:
0=
0>
08
0&
#217500
1"
1:
1=
1>
18
1&
#225000
0"
0:
0=
0>
08
0&
#232500
1"
1:
1=
1>
18
1&
#240000
0$
0"
0:
09
0?
0=
0H
0>
07
08
0&
0'
0@
#247500
1"
1:
#255000
0"
0:
#262500
1"
1:
#270000
1!
0"
0:
1<
1B
1?
1H
17
1'
1C
1@
#277500
1"
1:
1=
1>
18
1&
1D
1G
0E
04
16
1%
0)
#285000
0"
0:
0=
0>
08
0&
#292500
1"
1:
1=
1>
18
1&
#300000
0"
0:
0=
0>
08
0&
#307500
1"
1:
1=
1>
18
1&
#315000
0"
0:
0=
0>
08
0&
#320000
0!
0<
0B
0?
0H
07
0'
0C
0@
#322500
1"
1:
#330000
0"
0:
#337500
1"
1:
#345000
0"
0:
#352500
1"
1:
#360000
0"
0:
#367500
1"
1:
#370000
1$
19
1?
1H
1=
1>
18
17
1'
1&
1@
0D
0A
0G
06
0%
#375000
0"
0:
0=
0>
08
0&
#382500
1"
1:
1=
1>
18
1&
1A
1E
14
1)
#390000
0"
0:
0=
0>
08
0&
#397500
1"
1:
1=
1>
18
1&
#405000
0"
0:
0=
0>
08
0&
#412500
1"
1:
1=
1>
18
1&
#420000
1#
0"
0:
1;
1B
0=
0H
0>
07
08
0&
0'
1C
#427500
1"
1:
#435000
0"
0:
#440000
0$
09
0?
1H
17
1'
0@
#442500
1"
1:
1=
1>
18
1&
1D
0A
1F
0E
04
15
1(
0)
#450000
1!
0"
0:
1<
1?
0=
0H
0>
07
08
0&
0'
1@
#457500
1"
1:
#465000
0"
0:
#472500
1"
1:
#480000
0#
0"
0:
0;
1H
17
1'
#487500
1"
1:
1=
1>
18
1&
1A
1G
0F
05
16
1%
0(
#495000
0"
0:
0=
0>
08
0&
#502500
1"
1:
1=
1>
18
1&
#510000
0"
0:
0=
0>
08
0&
#517500
1"
1:
1=
1>
18
1&
#525000
0"
0:
0=
0>
08
0&
#530000
1$
19
0H
07
0'
#532500
1"
1:
#540000
0"
0:
#547500
1"
1:
#550000
0!
0<
0B
1H
1=
1>
18
17
1'
1&
0C
#555000
0"
0:
0=
0>
08
0&
#562500
1"
1:
1=
1>
18
1&
0D
0G
1E
14
06
0%
1)
#570000
0"
0:
0=
0>
08
0&
#577500
1"
1:
1=
1>
18
1&
#585000
0"
0:
0=
0>
08
0&
#592500
1"
1:
1=
1>
18
1&
#600000
0"
0:
0=
0>
08
0&
#607500
1"
1:
1=
1>
18
1&
#615000
0"
0:
0=
0>
08
0&
#620000
1#
1;
1B
0H
07
0'
1C
#622500
1"
1:
#630000
0"
0:
#637500
1"
1:
#640000
0$
09
0?
1H
1=
1>
18
17
1'
1&
0@
1D
1G
0E
04
16
1%
0)
#645000
0"
0:
0=
0>
08
0&
#652500
1"
1:
1=
1>
18
1&
0A
0G
1F
15
06
0%
1(
#660000
0"
0:
0=
0>
08
0&
#667500
1"
1:
1=
1>
18
1&
#675000
0"
0:
0=
0>
08
0&
#682500
1"
1:
1=
1>
18
1&
#690000
0"
0:
0=
0>
08
0&
#697500
1"
1:
1=
1>
18
1&
#705000
0"
0:
0=
0>
08
0&
#712500
1"
1:
1=
1>
18
1&
#720000
0"
0:
0=
0>
08
0&
#727500
1"
1:
1=
1>
18
1&
#735000
0"
0:
0=
0>
08
0&
#740000
0#
0;
0B
0H
07
0'
0C
#742500
1"
1:
#750000
0"
0:
#757500
1"
1:
#765000
0"
0:
#772500
1"
1:
#780000
0"
0:
#787500
1"
1:
#795000
0"
0:
#802500
1"
1:
#810000
0"
0:
#817500
1"
1:
#825000
0"
0:
#832500
1"
1:
#840000
0"
0:
#847500
1"
1:
#855000
0"
0:
#862500
1"
1:
#870000
0"
0:
#877500
1"
1:
#885000
0"
0:
#892500
1"
1:
#900000
0"
0:
#907500
1"
1:
#915000
0"
0:
#922500
1"
1:
#930000
0"
0:
#937500
1"
1:
#945000
0"
0:
#952500
1"
1:
#960000
0"
0:
#967500
1"
1:
#975000
0"
0:
#982500
1"
1:
#990000
0"
0:
#997500
1"
1:
